…
```r
if (!file.exists("mtsamples.csv"))
  download.file(
    url = "https://raw.githubusercontent.com/USCbiostats/data-science-data/master/00_mtsamples/mtsamples.csv",
    destfile = "mtsamples.csv",
    method = "libcurl",
    timeout = 60
  )
mtsamples <- read.csv("mtsamples.csv")
mtsamples <- as_tibble(mtsamples)
mtsamples
```

```
## # A tibble: 4,999 x 6
##        X description    medical_special… sample_name  transcription   keywords  
##    <int> <chr>          <chr>            <chr>        <chr>           <chr>     
##  1     0 " A 23-year-o… " Allergy / Imm… " Allergic … "SUBJECTIVE:, … "allergy …
##  2     1 " Consult for… " Bariatrics"    " Laparosco… "PAST MEDICAL … "bariatri…
##  3     2 " Consult for… " Bariatrics"    " Laparosco… "HISTORY OF PR… "bariatri…
##  4     3 " 2-D M-Mode.… " Cardiovascula… " 2-D Echoc… "2-D M-MODE: ,… "cardiova…
##  5     4 " 2-D Echocar… " Cardiovascula… " 2-D Echoc… "1.  The left … "cardiova…
##  6     5 " Morbid obes… " Bariatrics"    " Laparosco… "PREOPERATIVE … "bariatri…
##  7     6 " Liposuction… " Bariatrics"    " Liposucti… "PREOPERATIVE … "bariatri…
##  8     7 " 2-D Echocar… " Cardiovascula… " 2-D Echoc… "2-D ECHOCARDI… "cardiova…
##  9     8 " Suction-ass… " Bariatrics"    " Lipectomy… "PREOPERATIVE … "bariatri…
## 10     9 " Echocardiog… " Cardiovascula… " 2-D Echoc… "DESCRIPTION:,… "cardiova…
## # … with 4,989 more rows
```
…
Pick the word: Patient

```r
bigrams <- mtsamples %>%
  unnest_ngrams(output = bigram, input = transcription, n = 2) %>%
  separate(bigram, into = c("w1", "w2"), sep = " ") %>%
  filter((w1 == "patient") | (w2 == "patient"))
bigrams %>%
  filter(w1 == "patient") %>%
  select(w1, w2) %>%
  count(w2, sort = TRUE)
```

```
## # A tibble: 588 x 2
##    w2            n
##    <chr>     <int>
##  1 was        6293
##  2 is         3332
##  3 has        1417
##  4 tolerated   994
##  5 had         888
##  6 will        616
##  7 denies      552
##  8 and         377
##  9 states      363
## 10 does        334
## # … with 578 more rows
```

```r
bigrams %>%
  filter(w2 == "patient") %>%
  select(w1, w2) %>%
  count(w1, sort = TRUE)
```

```
## # A tibble: 269 x 2
##    w1            n
##    <chr>     <int>
##  1 the       20307
##  2 this        470
##  3 history     101
##  4 a            67
##  5 and          47
##  6 procedure    32
##  7 female       26
##  8 with         25
##  9 use          24
## 10 old          23
## # … with 259 more rows
```
…
